…
Instead of downloading a file from the website, I’ll use my opendatatoronto package to read the data directly into R 💅

library(opendatatoronto)

ttc_ridership_raw <- search_packages("TTC Ridership Analysis") %>%
  list_package_resources() %>%
  get_resource()

ttc_ridership_raw

## # A tibble: 64 x 36
##    `TORONTO TRANSI… ...2  ...3  ...4  ...5  ...6  ...7  ...8  ...9  ...10
##    <chr>            <chr> <chr> <chr> <chr> <chr> <chr> <chr> <chr> <chr>
##  1 ANALYSIS OF RID… <NA>  <NA>  <NA>  <NA>  <NA>  <NA>  <NA>  <NA>  <NA> 
##  2 1985 TO 2018 AC… <NA>  <NA>  <NA>  <NA>  <NA>  <NA>  <NA>  <NA>  <NA> 
##  3 <NA>             <NA>  <NA>  <NA>  <NA>  <NA>  <NA>  <NA>  <NA>  <NA> 
##  4 <NA>             FARE… 2018  2017  2016  2015… 2014  2013  2012  2011 
##  5 WHO              ADULT <NA>  <NA>  <NA>  <NA>  <NA>  <NA>  <NA>  <NA> 
##  6 <NA>             TOKE… 46974 76106 1020… 1109… 1111… 1123… 1179… 1247…
##  7 <NA>             TICK… N/A   N/A   N/A   N/A   N/A   N/A   N/A   N/A  
##  8 <NA>             TWO-… N/A   N/A   N/A   N/A   N/A   N/A   N/A   N/A  
##  9 <NA>             PRES… 1168… 67829 27397 13323 9862  8194  4399  1139 
## 10 <NA>             PRES… 1752  N/A   N/A   N/A   N/A   N/A   N/A   N/A  
## # … with 54 more rows, and 26 more variables: ...11 <chr>, ...12 <chr>,
## #   ...13 <chr>, ...14 <chr>, ...15 <chr>, ...16 <chr>, ...17 <chr>,
## #   ...18 <chr>, ...19 <chr>, ...20 <chr>, ...21 <chr>, ...22 <chr>,
## #   ...23 <chr>, ...24 <chr>, ...25 <chr>, ...26 <chr>, ...27 <chr>,
## #   ...28 <chr>, ...29 <chr>, ...30 <chr>, ...31 <chr>, ...32 <chr>,
## #   ...33 <chr>, ...34 <chr>, ...35 <chr>, ...36 <chr>

First, I want to remove all the preamble and change the column names to whatever is in the fourth row, since this contains information on the type of fare paid, as well as the years that the data covers.

I hyped the janitor package in my previous post, but now it has even more functionality! The rows_to_names() function does exactly what I want:

library(janitor)

ttc_ridership <- ttc_ridership_raw %>% 
  row_to_names(row_number = 4)

ttc_ridership

## # A tibble: 60 x 36
##    NA    `FARE MEDIA` `2018` `2017` `2016` `2015 *` `2014` `2013` `2012`
##    <chr> <chr>        <chr>  <chr>  <chr>  <chr>    <chr>  <chr>  <chr> 
##  1 WHO   ADULT        <NA>   <NA>   <NA>   <NA>     <NA>   <NA>   <NA>  
##  2 <NA>  TOKENS       46974  76106  102073 110945   111157 112360 117962
##  3 <NA>  TICKETS      N/A    N/A    N/A    N/A      N/A    N/A    N/A   
##  4 <NA>  TWO-FARE     N/A    N/A    N/A    N/A      N/A    N/A    N/A   
##  5 <NA>  PRESTO - SI… 116888 67829  27397  13323    9862   8194   4399  
##  6 <NA>  PRESTO - AD… 1752   N/A    N/A    N/A      N/A    N/A    N/A   
##  7 <NA>  PRESTO - PO… 74     N/A    N/A    N/A      N/A    N/A    N/A   
##  8 <NA>  PRESTO - SR… 1049   1271   1157   N/A      N/A    N/A    N/A   
##  9 <NA>  PRESTO - SR… 856    821    582    N/A      N/A    N/A    N/A   
## 10 <NA>  PRESTO - MO… 19111  1613   N/A    N/A      N/A    N/A    N/A   
## # … with 50 more rows, and 27 more variables: `2011` <chr>, `2010` <chr>,
## #   `2009` <chr>, `2008` <chr>, `2007` <chr>, `2006` <chr>, `2005` <chr>,
## #   `2004` <chr>, `2003` <chr>, `2002` <chr>, `2001` <chr>, `2000` <chr>,
## #   `1999` <chr>, `1998` <chr>, `1997` <chr>, `1996` <chr>, `1995` <chr>,
## #   `1994` <chr>, `1993` <chr>, `1992` <chr>, `1991` <chr>, `1990` <chr>,
## #   `1989` <chr>, `1988` <chr>, `1987` <chr>, `1986` <chr>, `1985` <chr>

This also removes the fourth row itself and all the rows prior, which gets rid of the preamble! If you want to use this function but don’t like that behaviour, it’s controlled in the remove_row and remove_rows_above arguments (both of which default to TRUE).

Next up, I’m going to use janitor’s famous clean_names() function, because dealing with column names like “FARE MEDIA” and "2015 *" are annoying, but also because the column name NA is super illegal in R (source?)

ttc_ridership <- ttc_ridership %>%
  clean_names()

ttc_ridership

## # A tibble: 60 x 36
##    na    fare_media x2018 x2017 x2016 x2015 x2014 x2013 x2012 x2011 x2010
##    <chr> <chr>      <chr> <chr> <chr> <chr> <chr> <chr> <chr> <chr> <chr>
##  1 WHO   ADULT      <NA>  <NA>  <NA>  <NA>  <NA>  <NA>  <NA>  <NA>  <NA> 
##  2 <NA>  TOKENS     46974 76106 1020… 1109… 1111… 1123… 1179… 1247… 1203…
##  3 <NA>  TICKETS    N/A   N/A   N/A   N/A   N/A   N/A   N/A   N/A   1298 
##  4 <NA>  TWO-FARE   N/A   N/A   N/A   N/A   N/A   N/A   N/A   N/A   N/A  
##  5 <NA>  PRESTO - … 1168… 67829 27397 13323 9862  8194  4399  1139  0    
##  6 <NA>  PRESTO - … 1752  N/A   N/A   N/A   N/A   N/A   N/A   N/A   N/A  
##  7 <NA>  PRESTO - … 74    N/A   N/A   N/A   N/A   N/A   N/A   N/A   N/A  
##  8 <NA>  PRESTO - … 1049  1271  1157  N/A   N/A   N/A   N/A   N/A   N/A  
##  9 <NA>  PRESTO - … 856   821   582   N/A   N/A   N/A   N/A   N/A   N/A  
## 10 <NA>  PRESTO - … 19111 1613  N/A   N/A   N/A   N/A   N/A   N/A   N/A  
## # … with 50 more rows, and 25 more variables: x2009 <chr>, x2008 <chr>,
## #   x2007 <chr>, x2006 <chr>, x2005 <chr>, x2004 <chr>, x2003 <chr>,
## #   x2002 <chr>, x2001 <chr>, x2000 <chr>, x1999 <chr>, x1998 <chr>,
## #   x1997 <chr>, x1996 <chr>, x1995 <chr>, x1994 <chr>, x1993 <chr>,
## #   x1992 <chr>, x1991 <chr>, x1990 <chr>, x1989 <chr>, x1988 <chr>,
## #   x1987 <chr>, x1986 <chr>, x1985 <chr>

To clean up a little more, I’m going to get rid of any rows where fare_media is a total or subtotal (they’re nice for looking at the table itself, but not helpful from a tidy data standpoint) or where it’s missing (these represent those annoying “post-amble” rows"):

library(dplyr)

ttc_ridership <- ttc_ridership %>%
  filter(!fare_media %in% c("SYSTEM TOTAL", "SUB-TOTAL"),
         !is.na(fare_media))

ttc_ridership

## # A tibble: 47 x 36
##    na    fare_media x2018 x2017 x2016 x2015 x2014 x2013 x2012 x2011 x2010
##    <chr> <chr>      <chr> <chr> <chr> <chr> <chr> <chr> <chr> <chr> <chr>
##  1 WHO   ADULT      <NA>  <NA>  <NA>  <NA>  <NA>  <NA>  <NA>  <NA>  <NA> 
##  2 <NA>  TOKENS     46974 76106 1020… 1109… 1111… 1123… 1179… 1247… 1203…
##  3 <NA>  TICKETS    N/A   N/A   N/A   N/A   N/A   N/A   N/A   N/A   1298 
##  4 <NA>  TWO-FARE   N/A   N/A   N/A   N/A   N/A   N/A   N/A   N/A   N/A  
##  5 <NA>  PRESTO - … 1168… 67829 27397 13323 9862  8194  4399  1139  0    
##  6 <NA>  PRESTO - … 1752  N/A   N/A   N/A   N/A   N/A   N/A   N/A   N/A  
##  7 <NA>  PRESTO - … 74    N/A   N/A   N/A   N/A   N/A   N/A   N/A   N/A  
##  8 <NA>  PRESTO - … 1049  1271  1157  N/A   N/A   N/A   N/A   N/A   N/A  
##  9 <NA>  PRESTO - … 856   821   582   N/A   N/A   N/A   N/A   N/A   N/A  
## 10 <NA>  PRESTO - … 19111 1613  N/A   N/A   N/A   N/A   N/A   N/A   N/A  
## # … with 37 more rows, and 25 more variables: x2009 <chr>, x2008 <chr>,
## #   x2007 <chr>, x2006 <chr>, x2005 <chr>, x2004 <chr>, x2003 <chr>,
## #   x2002 <chr>, x2001 <chr>, x2000 <chr>, x1999 <chr>, x1998 <chr>,
## #   x1997 <chr>, x1996 <chr>, x1995 <chr>, x1994 <chr>, x1993 <chr>,
## #   x1992 <chr>, x1991 <chr>, x1990 <chr>, x1989 <chr>, x1988 <chr>,
## #   x1987 <chr>, x1986 <chr>, x1985 <chr>

I’ll also replace all “N/A” values with literal NAs, for all columns. dplyr’s mutate_all() is just like its mutate(), except it applies the function to all columns.

ttc_ridership <- ttc_ridership %>%
  mutate_all(~ ifelse(.x == "N/A", NA, .x))

ttc_ridership

## # A tibble: 47 x 36
##    na    fare_media x2018 x2017 x2016 x2015 x2014 x2013 x2012 x2011 x2010
##    <chr> <chr>      <chr> <chr> <chr> <chr> <chr> <chr> <chr> <chr> <chr>
##  1 WHO   ADULT      <NA>  <NA>  <NA>  <NA>  <NA>  <NA>  <NA>  <NA>  <NA> 
##  2 <NA>  TOKENS     46974 76106 1020… 1109… 1111… 1123… 1179… 1247… 1203…
##  3 <NA>  TICKETS    <NA>  <NA>  <NA>  <NA>  <NA>  <NA>  <NA>  <NA>  1298 
##  4 <NA>  TWO-FARE   <NA>  <NA>  <NA>  <NA>  <NA>  <NA>  <NA>  <NA>  <NA> 
##  5 <NA>  PRESTO - … 1168… 67829 27397 13323 9862  8194  4399  1139  0    
##  6 <NA>  PRESTO - … 1752  <NA>  <NA>  <NA>  <NA>  <NA>  <NA>  <NA>  <NA> 
##  7 <NA>  PRESTO - … 74    <NA>  <NA>  <NA>  <NA>  <NA>  <NA>  <NA>  <NA> 
##  8 <NA>  PRESTO - … 1049  1271  1157  <NA>  <NA>  <NA>  <NA>  <NA>  <NA> 
##  9 <NA>  PRESTO - … 856   821   582   <NA>  <NA>  <NA>  <NA>  <NA>  <NA> 
## 10 <NA>  PRESTO - … 19111 1613  <NA>  <NA>  <NA>  <NA>  <NA>  <NA>  <NA> 
## # … with 37 more rows, and 25 more variables: x2009 <chr>, x2008 <chr>,
## #   x2007 <chr>, x2006 <chr>, x2005 <chr>, x2004 <chr>, x2003 <chr>,
## #   x2002 <chr>, x2001 <chr>, x2000 <chr>, x1999 <chr>, x1998 <chr>,
## #   x1997 <chr>, x1996 <chr>, x1995 <chr>, x1994 <chr>, x1993 <chr>,
## #   x1992 <chr>, x1991 <chr>, x1990 <chr>, x1989 <chr>, x1988 <chr>,
## #   x1987 <chr>, x1986 <chr>, x1985 <chr>
…
