…
Let’s read in the data. It contains information on the product rated as well as the actual title + text of the review, the number of stars rated, the date, and a user id.

library(jsonlite)
library(dplyr)

crying <- fromJSON("https://raw.githubusercontent.com/everestpipkin/datagardens/master/students/khanniie/5_newDataSet/crying_dataset.json",
  simplifyDataFrame = TRUE
)

crying <- as_tibble(crying[["reviews"]])

crying

## # A tibble: 105 x 6
##    date  product_info$br… $name $type $url  review_body review_title stars
##    <chr> <chr>            <chr> <chr> <chr> <chr>       <chr>        <chr>
##  1 29 M… Too Faced        Bett… Masc… http… Now I can … AWESOME      5 st…
##  2 29 S… Too Faced        Bett… Masc… http… This holds… if you're s… 5 st…
##  3 23 M… Too Faced        Bett… Masc… http… I just bou… Hate it      1 st…
##  4 15 A… Too Faced        Bett… Masc… http… To start o… Nearly perf… 5 st…
##  5 21 S… Too Faced        Bett… Masc… http… This masca… Amazing!!    5 st…
##  6 30 M… Too Faced        Bett… Masc… http… "Let's tal… Tricky but … 5 st…
##  7 3 Ap… Too Faced        Bett… Masc… http… I really w… nothing lik… 1 st…
##  8 6 Ma… Too Faced        Bett… Masc… http… I bought t… absolute be… 5 st…
##  9 7 Se… Too Faced        Bett… Masc… http… I have ext… Color: Stan… 5 st…
## 10 27 F… Too Faced        Bett… Masc… http… My 6$ drug… Didn't like… 1 st…
## # … with 95 more rows, and 1 more variable: userid <dbl>
…
There’s no way that I could let all of that juicy review data go without doing some text analysis. I’ve still only read like the first three chapters of the tidy text mining book (sorry 🇨🇦) so we’re just going to count some words.

I’m pasting the review title + text together, then separating that text out into words (adding a review id along with it so we can keep track of distinct reviews, and carrying the stars along for later!):

library(tidytext)

crying_tokens <- crying %>%
  mutate(review_id = row_number()) %>%
  mutate(review = paste(review_title, review_body)) %>%
  select(review_id, stars, review) %>%
  unnest_tokens(word, review)

crying_tokens

## # A tibble: 12,150 x 3
##    review_id stars word   
##        <int> <int> <chr>  
##  1         1     5 awesome
##  2         1     5 now    
##  3         1     5 i      
##  4         1     5 can    
##  5         1     5 cry    
##  6         1     5 all    
##  7         1     5 i      
##  8         1     5 want   
##  9         1     5 without
## 10         1     5 having 
## # … with 12,140 more rows
…
