…
First, let’s split up the amenities_available variable, which is in the format “amenity_1 , amenity_2 , …”, i.e., with amenities separated by " , ". I’m also counting the number of buildings and carrying it along for the ride so that I can calculate a percentage later on:

library(janitor)
library(tidyr)

amenities <- apartment_buildings %>%
  clean_names() %>%
  select(id, amenities_available) %>%
  mutate(n_buildings = n_distinct(id)) %>%
  separate_rows(amenities_available, sep = " , ")

amenities

## # A tibble: 4,202 x 3
##       id amenities_available    n_buildings
##    <int> <chr>                        <int>
##  1     1 Indoor recreation room        3450
##  2     1 Outdoor rec facilities        3450
##  3     1 Child play area               3450
##  4     2 Indoor recreation room        3450
##  5     3 Indoor recreation room        3450
##  6     4 <NA>                          3450
##  7     5 <NA>                          3450
##  8     6 <NA>                          3450
##  9    14 <NA>                          3450
## 10     7 Indoor exercise room          3450
## # … with 4,192 more rows
…
