…
today i tweeted asking about packages to compare two data frames (specifically, their variable names and types):

{{% tweet "1229512910591885317" %}}
judging by the ratio (18 replies to 38 likes!) at the time of writing, yes there are definitely packages to do this! in this post, i want to explore the (many) different and excellent methods for comparing two data frames in #rstats.

the data

first, what are we talking about? imagine i have some data coming in, and i know what it should look like. it should look like iris! 💮

iris

## # A tibble: 150 x 5
##   Sepal.Length Sepal.Width Petal.Length Petal.Width Species
##          <dbl>       <dbl>        <dbl>       <dbl> <fct>  
## 1          5.1         3.5          1.4         0.2 setosa 
## 2          4.9         3            1.4         0.2 setosa 
## 3          4.7         3.2          1.3         0.2 setosa 
## 4          4.6         3.1          1.5         0.2 setosa 
## 5          5           3.6          1.4         0.2 setosa 
## # … with 145 more rows

so, iris has 5 columns: Sepal.Length, Sepal.Width, Petal.Length, and Species. the column types are: numeric/double (times 4!) and factor.

the data i’m bringing in could have a number of problems.

it could be missing a column:

library(dplyr)

iris_missing_cols <- iris %>%
  select(-Sepal.Length)

iris_missing_cols

## # A tibble: 150 x 4
##   Sepal.Width Petal.Length Petal.Width Species
##         <dbl>        <dbl>       <dbl> <fct>  
## 1         3.5          1.4         0.2 setosa 
## 2         3            1.4         0.2 setosa 
## 3         3.2          1.3         0.2 setosa 
## 4         3.1          1.5         0.2 setosa 
## 5         3.6          1.4         0.2 setosa 
## # … with 145 more rows

it could have an extra column:

iris_extra_cols <- iris %>%
  mutate(Specieso = Species)

iris_extra_cols

## # A tibble: 150 x 6
##   Sepal.Length Sepal.Width Petal.Length Petal.Width Species Specieso
##          <dbl>       <dbl>        <dbl>       <dbl> <fct>   <fct>   
## 1          5.1         3.5          1.4         0.2 setosa  setosa  
## 2          4.9         3            1.4         0.2 setosa  setosa  
## 3          4.7         3.2          1.3         0.2 setosa  setosa  
## 4          4.6         3.1          1.5         0.2 setosa  setosa  
## 5          5           3.6          1.4         0.2 setosa  setosa  
## # … with 145 more rows

it could be missing a column and have an extra column:

iris_missing_extra_cols <- iris %>%
  select(-Sepal.Length) %>%
  mutate(Specieso = Species)

iris_missing_extra_cols

## # A tibble: 150 x 5
##   Sepal.Width Petal.Length Petal.Width Species Specieso
##         <dbl>        <dbl>       <dbl> <fct>   <fct>   
## 1         3.5          1.4         0.2 setosa  setosa  
## 2         3            1.4         0.2 setosa  setosa  
## 3         3.2          1.3         0.2 setosa  setosa  
## 4         3.1          1.5         0.2 setosa  setosa  
## 5         3.6          1.4         0.2 setosa  setosa  
## # … with 145 more rows

it could have a column of the wrong class:

iris_wrong_class <- iris %>%
  mutate(Species = as.character(Species))

iris_wrong_class

## # A tibble: 150 x 5
##   Sepal.Length Sepal.Width Petal.Length Petal.Width Species
##          <dbl>       <dbl>        <dbl>       <dbl> <chr>  
## 1          5.1         3.5          1.4         0.2 setosa 
## 2          4.9         3            1.4         0.2 setosa 
## 3          4.7         3.2          1.3         0.2 setosa 
## 4          4.6         3.1          1.5         0.2 setosa 
## 5          5           3.6          1.4         0.2 setosa 
## # … with 145 more rows

or it could have all three!

iris_missing_extra_cols_wrong_class <- iris_missing_extra_cols %>%
  mutate(Species = as.character(Species))

iris_missing_extra_cols_wrong_class

## # A tibble: 150 x 5
##   Sepal.Width Petal.Length Petal.Width Species Specieso
##         <dbl>        <dbl>       <dbl> <chr>   <fct>   
## 1         3.5          1.4         0.2 setosa  setosa  
## 2         3            1.4         0.2 setosa  setosa  
## 3         3.2          1.3         0.2 setosa  setosa  
## 4         3.1          1.5         0.2 setosa  setosa  
## 5         3.6          1.4         0.2 setosa  setosa  
## # … with 145 more rows

one last thing is not a problem, but i’m curious to see if the packages i explore will think it is. this is when the column order is different:

iris_diff_order <- iris %>%
  select(Species, everything())

iris_diff_order

## # A tibble: 150 x 5
##   Species Sepal.Length Sepal.Width Petal.Length Petal.Width
##   <fct>          <dbl>       <dbl>        <dbl>       <dbl>
## 1 setosa           5.1         3.5          1.4         0.2
## 2 setosa           4.9         3            1.4         0.2
## 3 setosa           4.7         3.2          1.3         0.2
## 4 setosa           4.6         3.1          1.5         0.2
## 5 setosa           5           3.6          1.4         0.2
## # … with 145 more rows
…
this one is my idea 😇 because i love testthat

when the data frames are the same, expect_equal() returns:

library(testthat)

expect_equal(iris, iris)

nothing. well actually, it returns the data frame invisibly:

x <- expect_equal(iris, iris)

x

## # A tibble: 150 x 5
##   Sepal.Length Sepal.Width Petal.Length Petal.Width Species
##          <dbl>       <dbl>        <dbl>       <dbl> <fct>  
## 1          5.1         3.5          1.4         0.2 setosa 
## 2          4.9         3            1.4         0.2 setosa 
## 3          4.7         3.2          1.3         0.2 setosa 
## 4          4.6         3.1          1.5         0.2 setosa 
## 5          5           3.6          1.4         0.2 setosa 
## # … with 145 more rows
…
✅

what to do what to do

ok, so what did i end up doing? combining things, of course!

i loved learning about new packages and seeing what’s available in packages i already know. i am inclined to use stuff from dplyr and janitor because they’re often already dependencies in my work.

so, i decided to cobble something together using the data available from janitor::compare_df_cols(), and the basic check of dplyr::all_equal() as a jumping off point, and i borrowed some of the message/error/etc wording from the packages i explored. i also have my function return the original data if all checks pass so that it can easily be used in a pipeline!

i won’t belabour you with the source code, but here’s how it works:

sharla_diff(iris, iris)

## # A tibble: 150 x 5
##   Sepal.Length Sepal.Width Petal.Length Petal.Width Species
##          <dbl>       <dbl>        <dbl>       <dbl> <fct>  
## 1          5.1         3.5          1.4         0.2 setosa 
## 2          4.9         3            1.4         0.2 setosa 
## 3          4.7         3.2          1.3         0.2 setosa 
## 4          4.6         3.1          1.5         0.2 setosa 
## 5          5           3.6          1.4         0.2 setosa 
## # … with 145 more rows

sharla_diff(iris, iris_diff_order)

## # A tibble: 150 x 5
##   Sepal.Length Sepal.Width Petal.Length Petal.Width Species
##          <dbl>       <dbl>        <dbl>       <dbl> <fct>  
## 1          5.1         3.5          1.4         0.2 setosa 
## 2          4.9         3            1.4         0.2 setosa 
## 3          4.7         3.2          1.3         0.2 setosa 
## 4          4.6         3.1          1.5         0.2 setosa 
## 5          5           3.6          1.4         0.2 setosa 
## # … with 145 more rows
…
