---
title: "February 2019: Visualizing my discogs collection"
author: ''
date: '2019-03-15'
slug: visualizing-discogs
---

In parts one and two of this series I did a whole lot of API pulling and data cleaning to get my discogs collection into a tidy state 🙏 Now I’m finally ready to do something with it!

I want to be able to explore my collection on a map (😱) and also see what styles of music I like, from where, and how that has changed over time.

collection_data

## # A tibble: 169 x 11
##    release_id title format artist_id artist_name  year style city  country
##         <int> <chr> <chr>      <int> <chr>       <dbl> <chr> <chr> <chr>  
##  1    7496378 Demo  Tape     4619796 Mollot       2015 Hard… Toro… Canada 
##  2    4490852 Obse… "12\""   3192745 Una Bèstia…  2013 Hard… Barc… Spain  
##  3    5556486 Fuck… "12\""   2876549 Good Throb   2014 Post… Lond… UK     
##  4    9827276 I     "7\""    2769828 S.H.I.T.     2017 Hard… Toro… Canada 
##  5    9769203 Oído… "12\""   4282571 Rata Negra   2017 Punk  Madr… Spain  
##  6    7237138 A Ca… "7\""    3596548 Ivy          2015 Hard… New … USA    
##  7   13117042 Tash… "7\""    5211980 Tashme       2019 Hard… Toro… Canada 
##  8    7113575 Demo  Tape     4450861 Desgraciad…  2014 Hard… Calg… Canada 
##  9   10540713 Let … Tape     4273896 Phantom He…  2015 Post… Kans… USA    
## 10   11260950 Sub … Tape     5694086 Sub Space    2017 Hard… New … USA    
## # … with 159 more rows, and 2 more variables: lat <dbl>, long <dbl>
…
points_sf <- collection_data %>%
  filter(!is.na(lat)) %>%
  st_as_sf(coords = c("long", "lat"), crs = 4326)

points_sf

## Simple feature collection with 167 features and 9 fields
## geometry type:  POINT
## dimension:      XY
## bbox:           xmin: -123.13 ymin: -33.46 xmax: 139.77 ymax: 63.83
## epsg (SRID):    4326
## proj4string:    +proj=longlat +datum=WGS84 +no_defs
## # A tibble: 167 x 10
##    release_id title format artist_id artist_name  year style city  country
##         <int> <chr> <chr>      <int> <chr>       <dbl> <fct> <chr> <chr>  
##  1    7496378 Demo  Tape     4619796 Mollot       2015 Hard… Toro… Canada 
##  2    4490852 Obse… "12\""   3192745 Una Bèstia…  2013 Hard… Barc… Spain  
##  3    5556486 Fuck… "12\""   2876549 Good Throb   2014 Post… Lond… UK     
##  4    9827276 I     "7\""    2769828 S.H.I.T.     2017 Hard… Toro… Canada 
##  5    9769203 Oído… "12\""   4282571 Rata Negra   2017 Punk  Madr… Spain  
##  6    7237138 A Ca… "7\""    3596548 Ivy          2015 Hard… New … USA    
##  7   13117042 Tash… "7\""    5211980 Tashme       2019 Hard… Toro… Canada 
##  8    7113575 Demo  Tape     4450861 Desgraciad…  2014 Hard… Calg… Canada 
##  9   10540713 Let … Tape     4273896 Phantom He…  2015 Post… Kans… USA    
## 10   11260950 Sub … Tape     5694086 Sub Space    2017 Hard… New … USA    
## # … with 157 more rows, and 1 more variable: geometry <POINT [°]>
…
